{
    "zombie ": "https://i.imgur.com/V8VApEY.gif",
    "yotm ": "https://i.imgur.com/SrWPXyh.gif",
    "yoga ": "https://i.imgur.com/AR5GXxj.gif",
    "yes ": "https://i.imgur.com/cHTM5Lj.gif",
    "yawn ": "https://i.imgur.com/HkklU2q.gif",
    "xmastree ": "https://i.imgur.com/vuoeQFW.gif",
    "wtf ": "https://i.imgur.com/AX8f76Y.gif",
    "worry ": "https://i.imgur.com/0rLPh98.gif",
    "wonder ": "https://i.imgur.com/njrScjQ.gif",
    "woman ": "https://i.imgur.com/w80PaUe.gif",
    "wink ": "https://i.imgur.com/niYoX4m.gif",
    "win10 ": "https://i.imgur.com/CpSSZAm.gif",
    "whosthis ": "https://i.imgur.com/V4P1Pwr.gif",
    "whistle ": "https://i.imgur.com/ZyglcHz.gif",
    "whew ": "https://i.imgur.com/bmGRmHI.gif",
    "whatsgoingon ": "https://i.imgur.com/ZZ4z5d0.gif",
    "wfh ": "https://i.imgur.com/bZVO6ua.gif",
    "wasntme ": "https://i.imgur.com/QQQOnHD.gif",
    "waiting ": "https://i.imgur.com/dDjAsAK.gif",
    "wait ": "https://i.imgur.com/mZPdy9T.gif",
    "victory ": "https://i.imgur.com/m3GkdtT.gif",
    "vampire ": "https://i.imgur.com/jEViidd.gif",
    "unsee ": "https://i.imgur.com/siLLGPo.gif",
    "umbrella ": "https://i.imgur.com/zdSOHin.gif",
    "tvbinge ": "https://i.imgur.com/E76JIhy.gif",
    "turkey ": "https://i.imgur.com/iX4UquV.gif",
    "tumbleweed ": "https://i.imgur.com/gBCNhIR.gif",
    "tubelight ": "https://i.imgur.com/2FyoA08.gif",
    "tongueout ": "https://i.imgur.com/q3LaPYa.gif",
    "toivo ": "https://i.imgur.com/w1ygFVo.gif",
    "tmi ": "https://i.imgur.com/O1jgt0i.gif",
    "time ": "https://i.imgur.com/fLH2LzZ.gif",
    "think ": "https://i.imgur.com/ziVs8rm.gif",
    "taur ": "https://i.imgur.com/arG7X5l.gif",
    "tandoorichicken ": "https://i.imgur.com/QhR1EiE.gif",
    "talktothehand ": "https://i.imgur.com/pVN5Iy1.gif",
    "talk ": "https://i.imgur.com/2Sc0it1.gif",
    "sweat ": "https://i.imgur.com/E9BjXJK.gif",
    "swear ": "https://i.imgur.com/40bO0VL.gif",
    "suryannamaskar ": "https://i.imgur.com/ZglJ37x.gif",
    "surprised ": "https://i.imgur.com/MJKuz0p.gif",
    "sun ": "https://i.imgur.com/Huekrzf.gif",
    "sturridge15 ": "https://i.imgur.com/I7dtkzu.gif",
    "stop ": "https://i.imgur.com/1yalh6u.gif",
    "star ": "https://i.imgur.com/TDRtEo9.gif",
    "speechless ": "https://i.imgur.com/mNMf8Jr.gif",
    "snowangel ": "https://i.imgur.com/tNdcrHj.gif",
    "snail ": "https://i.imgur.com/NeOdCyu.gif",
    "smoke ": "https://i.imgur.com/S1BMo46.gif",
    "smirk ": "https://i.imgur.com/T2dfz9X.gif",
    "smile ": "https://i.imgur.com/9pbCEY2.gif",
    "sleepy ": "https://i.imgur.com/qeI314t.gif",
    "slap ": "https://i.imgur.com/edV0Li6.gif",
    "skull ": "https://i.imgur.com/aWEiI9m.gif",
    "skipping ": "https://i.imgur.com/P3kIoJj.gif",
    "shopping ": "https://i.imgur.com/i8z27iQ.gif",
    "shock ": "https://i.imgur.com/8QqOXrS.gif",
    "shivering ": "https://i.imgur.com/mR2fs9m.gif",
    "sheep ": "https://i.imgur.com/iNvZCbB.gif",
    "shake ": "https://i.imgur.com/svpJO8G.gif",
    "sarcastic ": "https://i.imgur.com/LptRecQ.gif",
    "santamooning ": "https://i.imgur.com/jtOkae6.gif",
    "santa ": "https://i.imgur.com/FDTjkSd.gif",
    "sadness ": "https://i.imgur.com/qFpOtMW.gif",
    "sad ": "https://i.imgur.com/Qqo6FF2.gif",
    "rofl ": "https://i.imgur.com/08K9EMk.gif",
    "rock ": "https://i.imgur.com/Ipk0kOC.gif",
    "rickshaw ": "https://i.imgur.com/116GdzL.gif",
    "reindeer ": "https://i.imgur.com/tIFquDh.gif",
    "rainbow ": "https://i.imgur.com/1OhNAIu.gif",
    "rain ": "https://i.imgur.com/P41mFwg.gif",
    "punch ": "https://i.imgur.com/36hTQHo.gif",
    "pumpkin ": "https://i.imgur.com/3hwi6fV.gif",
    "pullshot ": "https://i.imgur.com/WUdqQpb.gif",
    "puke ": "https://i.imgur.com/H2dQPcT.gif",
    "promise ": "https://i.imgur.com/coP9T0I.gif",
    "priidu ": "https://i.imgur.com/geC5Rkt.gif",
    "praying ": "https://i.imgur.com/Gjoh9mu.gif",
    "poop ": "https://i.imgur.com/Cj6ZiZf.gif",
    "poolparty ": "https://i.imgur.com/Z6JuuGG.gif",
    "polarbear ": "https://i.imgur.com/yqDYFUm.gif",
    "poke ": "https://i.imgur.com/PDYXFto.gif",
    "plane ": "https://i.imgur.com/UPLWACe.gif",
    "pizza ": "https://i.imgur.com/WGtqKyt.gif",
    "phone ": "https://i.imgur.com/PQaYTTe.gif",
    "penguin ": "https://i.imgur.com/5SzTrr6.gif",
    "party ": "https://i.imgur.com/ZczQjI4.gif",
    "oye ": "https://i.imgur.com/eyGM94e.gif",
    "ontheloo ": "https://i.imgur.com/jyDylLy.gif",
    "oliver ": "https://i.imgur.com/6aQHXdj.gif",
    "ok ": "https://i.imgur.com/4kIiqFn.gif",
    "nod ": "https://i.imgur.com/wme7Uir.gif",
    "no ": "https://i.imgur.com/AWN6HDn.gif",
    "ninja ": "https://i.imgur.com/qmOE5ku.gif",
    "nerdy ": "https://i.imgur.com/e2ajCWi.gif",
    "neil ": "https://i.imgur.com/GCFq5Gl.gif",
    "nazar ": "https://i.imgur.com/PbfvcMp.gif",
    "naturescall ": "https://i.imgur.com/1e7fNDx.gif",
    "nahi ": "https://i.imgur.com/N5vXM7X.gif",
    "music ": "https://i.imgur.com/OsxO5Gh.gif",
    "muscleman ": "https://i.imgur.com/3fgpdb4.gif",
    "muscle ": "https://i.imgur.com/nbx746X.gif",
    "movie ": "https://i.imgur.com/JZjzhEv.gif",
    "movember ": "https://i.imgur.com/cfkhkPT.gif",
    "mooning ": "https://i.imgur.com/R9gHcPj.gif",
    "monkey ": "https://i.imgur.com/RyCsnIB.gif",
    "mmm ": "https://i.imgur.com/9Gd3EUL.gif",
    "mlt ": "https://i.imgur.com/7p6Eesj.gif",
    "man ": "https://i.imgur.com/WoNFMuP.gif",
    "makeup ": "https://i.imgur.com/OIZpNd8.gif",
    "mail ": "https://i.imgur.com/QfLGDPR.gif",
    "llsshock ": "https://i.imgur.com/erHPCbx.gif",
    "listening ": "https://i.imgur.com/xpaLwh5.gif",
    "lipssealed ": "https://i.imgur.com/roPosn5.gif",
    "lips ": "https://i.imgur.com/64POyPg.gif",
    "lfcworried ": "https://i.imgur.com/V2nTE5M.gif",
    "lfcparty ": "https://i.imgur.com/leosVB5.gif",
    "lfclaugh ": "https://i.imgur.com/9PnLbCn.gif",
    "lfcfacepalm ": "https://i.imgur.com/CZKmnAZ.gif",
    "lfcclap ": "https://i.imgur.com/Tfi9jnT.gif",
    "letsmeet ": "https://i.imgur.com/hiR2qTO.gif",
    "learn ": "https://i.imgur.com/gbouWKZ.gif",
    "laugh ": "https://i.imgur.com/LEmw9pe.gif",
    "lalala ": "https://i.imgur.com/m398z1U.gif",
    "ladyvampire ": "https://i.imgur.com/RGULM5j.gif",
    "laddu ": "https://i.imgur.com/kwVlmmd.gif",
    "kaanpakadna ": "https://i.imgur.com/uTHhfHf.gif",
    "kya ": "https://i.imgur.com/ImbofG9.gif",
    "klopp ": "https://i.imgur.com/qkvJKDp.gif",
    "kiss ": "https://i.imgur.com/5YiomfE.gif",
    "key ": "https://i.imgur.com/gAZ47LG.gif",
    "joy ": "https://i.imgur.com/V4bRdGY.gif",
    "island ": "https://i.imgur.com/5Aun1ZI.gif",
    "inlove ": "https://i.imgur.com/CP2EyrS.gif",
    "idea ": "https://i.imgur.com/DsG49ql.gif",
    "hungover ": "https://i.imgur.com/R3qVTPn.gif",
    "hug ": "https://i.imgur.com/39yFzlj.gif",
    "holidayspirit ": "https://i.imgur.com/EBN6vvE.gif",
    "holi ": "https://i.imgur.com/rDNhRSZ.gif",
    "holdon ": "https://i.imgur.com/lnzCxAC.gif",
    "highfive ": "https://i.imgur.com/rAgcbXq.gif",
    "hi ": "https://i.imgur.com/ETtNlCh.gif",
    "henderson14 ": "https://i.imgur.com/mvQGpwd.gif",
    "heidy ": "https://i.imgur.com/aPgWiS8.gif",
    "heart ": "https://i.imgur.com/MQThAhj.gif",
    "headphones ": "https://i.imgur.com/aNFPwXR.gif",
    "headbang ": "https://i.imgur.com/cqAJttV.gif",
    "happy ": "https://i.imgur.com/oeDYAGo.gif",
    "hanukkah ": "https://i.imgur.com/7AOMpCR.gif",
    "handsinair ": "https://i.imgur.com/M6dNz74.gif",
    "handshake ": "https://i.imgur.com/A3EZtBP.gif",
    "gottarun ": "https://i.imgur.com/6zKaMpC.gif",
    "goodluck ": "https://i.imgur.com/yw54fjh.gif",
    "golmaal ": "https://i.imgur.com/ZHisgT9.gif",
    "giggle ": "https://i.imgur.com/dng79GD.gif",
    "gift ": "https://i.imgur.com/BWq1pnT.gif",
    "ghost ": "https://i.imgur.com/BlcUKAz.gif",
    "games ": "https://i.imgur.com/VMQ7kdN.gif",
    "footballfail ": "https://i.imgur.com/iJ6u6wp.gif",
    "flower ": "https://i.imgur.com/UHTvf90.gif",
    "fistbump ": "https://i.imgur.com/4RPMLLN.gif",
    "fireworks ": "https://i.imgur.com/vky77l0.gif",
    "fingerscrossed ": "https://i.imgur.com/scFy6HA.gif",
    "finger ": "https://i.imgur.com/raBxFdW.gif",
    "festiveparty ": "https://i.imgur.com/8iB0W3N.gif",
    "fear ": "https://i.imgur.com/fEg98Bo.gif",
    "fallinlove ": "https://i.imgur.com/mShITBu.gif",
    "facepalm ": "https://i.imgur.com/Q905hi2.gif",
    "evilgrin ": "https://i.imgur.com/BHB5Qt1.gif",
    "envy ": "https://i.imgur.com/0FIZ7TI.gif",
    "emo ": "https://i.imgur.com/ZPqW8Dj.gif",
    "eid ": "https://i.imgur.com/tbFdPjl.gif",
    "eg ": "https://i.imgur.com/XDo7glA.gif",
    "dull ": "https://i.imgur.com/p0Rja76.gif",
    "drunk ": "https://i.imgur.com/aOnLgdM.gif",
    "drink ": "https://i.imgur.com/29jS4Td.gif",
    "donttalktome ": "https://i.imgur.com/cF3dHYE.gif",
    "donkey ": "https://i.imgur.com/Mp5SOVR.gif",
    "doh ": "https://i.imgur.com/0ibymyG.gif",
    "dog ": "https://i.imgur.com/JJuPwnN.gif",
    "diya ": "https://i.imgur.com/UZjkDJK.gif",
    "disgust ": "https://i.imgur.com/XiQJ3iw.gif",
    "discodancer ": "https://i.imgur.com/8I5ZI7l.gif",
    "dhakkan ": "https://i.imgur.com/3ADm7D3.gif",
    "devil ": "https://i.imgur.com/vBm1UuM.gif",
    "dance ": "https://i.imgur.com/WZAqDb6.gif",
    "cwl ": "https://i.imgur.com/q3uVbf8.gif",
    "cry ": "https://i.imgur.com/BxmsjKH.gif",
    "coutinho10 ": "https://i.imgur.com/F1y2byM.gif",
    "cool ": "https://i.imgur.com/xoLRlVZ.gif",
    "confidential ": "https://i.imgur.com/C6I7X20.gif",
    "computerrage ": "https://i.imgur.com/z0ogH2X.gif",
    "computer ": "https://i.imgur.com/lWrJK3t.gif",
    "coffee ": "https://i.imgur.com/o5OvKAS.gif",
    "clap ": "https://i.imgur.com/w6ra6mB.gif",
    "cheese ": "https://i.imgur.com/aQE7f9I.gif",
    "chappal ": "https://i.imgur.com/zjk6nQI.gif",
    "champagne ": "https://i.imgur.com/SObkLZq.gif",
    "chai ": "https://i.imgur.com/Iv3Ht3z.gif",
    "cat ": "https://i.imgur.com/uKlA84q.gif",
    "cash ": "https://i.imgur.com/6nQdkcK.gif",
    "car ": "https://i.imgur.com/mLpKziH.gif",
    "canyoutalk ": "https://i.imgur.com/6f95NwX.gif",
    "camera ": "https://i.imgur.com/z5Eygqa.gif",
    "call ": "https://i.imgur.com/0VP2UHF.gif",
    "cake ": "https://i.imgur.com/9ow64P6.gif",
    "bunny ": "https://i.imgur.com/pw3yRf0.gif",
    "bug ": "https://i.imgur.com/F3C7dNG.gif",
    "brokenheart ": "https://i.imgur.com/bR2rjY7.gif",
    "brb ": "https://i.imgur.com/rQuddAb.gif",
    "bowled ": "https://i.imgur.com/czBpuKh.gif",
    "bow ": "https://i.imgur.com/hGuxwtn.gif",
    "bomb ": "https://i.imgur.com/NMSrFN0.gif",
    "bollylove ": "https://i.imgur.com/4jbxZI8.gif",
    "blush ": "https://i.imgur.com/65Krj5h.gif",
    "bike ": "https://i.imgur.com/eTl8C5e.gif",
    "bhangra ": "https://i.imgur.com/e4FqD7O.gif",
    "bertlett ": "https://i.imgur.com/9W8bhC0.gif",
    "bell ": "https://i.imgur.com/q1AUvUV.gif",
    "beer ": "https://i.imgur.com/7NElmGE.gif",
    "bandit ": "https://i.imgur.com/3q7jm8y.gif",
    "angry ": "https://i.imgur.com/mdhpbZj.gif",
    "anger ": "https://i.imgur.com/rnWdGsN.gif",
    "angel ": "https://i.imgur.com/VMv62cb.gif",
    "abe ": "https://i.imgur.com/l0Xcc6V.gif"
}